3 Results – Fire and Police Department Payroll
…
Code

payroll_data_fire_police |> 
  filter(fiscal_year == "2024") |>
  group_by(agency_name,title_description) |> 
  summarise(
    Total_records = n()
    ,.groups = "drop"
  ) |> 
  arrange(agency_name,desc(Total_records))

# A tibble: 439 × 3
   agency_name     title_description                               Total_records
   <chr>           <chr>                                                   <int>
 1 FIRE DEPARTMENT FIREFIGHTER                                              9804
 2 FIRE DEPARTMENT EMERGENCY MEDICAL SPECIALIST-EMT                         3968
 3 FIRE DEPARTMENT LIEUTENANT                                               1620
 4 FIRE DEPARTMENT EMERGENCY MEDICAL SPECIALIST-PARAMEDIc                   1296
 5 FIRE DEPARTMENT CAPTAIN                                                   727
 6 FIRE DEPARTMENT SUPERVISING EMERGENCY MEDICAL SERVICE SPECIALI…           657
 7 FIRE DEPARTMENT BATTALION CHIEF                                           464
 8 FIRE DEPARTMENT ASSOCIATE FIRE PROTECTION INSPECTOR                       210
 9 FIRE DEPARTMENT FIRE PROTECTION INSPECTOR                                 200
10 FIRE DEPARTMENT FIRE ALARM DISPATCHER                                     197
# ℹ 429 more rows
…
Code

# good for alluvium, year start, year paid
payroll_data_fire_police |> 
  mutate(agency_start_date_year = year(agency_start_date)) |> 
  group_by(agency_start_date_year) |> 
  summarise(
    Total_records = n(),
  ) |> 
  arrange(agency_start_date_year)

# A tibble: 62 × 2
   agency_start_date_year Total_records
                    <dbl>         <int>
 1                   1960             1
 2                   1962             9
 3                   1966            10
 4                   1967             3
 5                   1968             8
 6                   1969            11
 7                   1970            34
 8                   1971            24
 9                   1972            18
10                   1973           158
# ℹ 52 more rows
…
payroll_data_fire_police |> 
  # mutate(year_agency_start_date_clean = year(agency_start_date_clean)) |> 
  filter(agency_start_date_year == "2024") |>
  filter(fiscal_year > "2014") |>
  group_by(agency_name,title_description) |> 
  summarise(
    Total_records = n()
    ,mean(base_salary)
  ) |> 
  arrange(agency_name,desc(Total_records))

`summarise()` has grouped output by 'agency_name'. You can override using the
`.groups` argument.

# A tibble: 46 × 4
# Groups:   agency_name [2]
   agency_name     title_description           Total_records `mean(base_salary)`
   <chr>           <chr>                               <int>               <dbl>
 1 FIRE DEPARTMENT FIREFIGHTER                           266              54122 
 2 FIRE DEPARTMENT EMERGENCY MEDICAL SPECIALI…           221              39430.
 3 FIRE DEPARTMENT EMERGENCY MEDICAL SPECIALI…            91              36330 
 4 FIRE DEPARTMENT AGENCY ATTORNEY                         2             112938.
 5 FIRE DEPARTMENT EXECUTIVE AGENCY COUNSEL                2             140187 
 6 FIRE DEPARTMENT PROGRAM PRODUCER                        2              23511.
 7 FIRE DEPARTMENT STAFF ANALYST                           2              74698 
 8 FIRE DEPARTMENT ASSISTANT COMMISSIONER                  1             202592 
 9 FIRE DEPARTMENT AUTO MECHANIC                           1                391.
10 FIRE DEPARTMENT CASE - MANAGEMENT NURSE                 1             100750 
# ℹ 36 more rows
…
  ) |>
  arrange(agency_name,title_description,work_location_borough)

`summarise()` has grouped output by 'agency_name', 'work_location_borough'. You
can override using the `.groups` argument.

# A tibble: 467 × 10
# Groups:   agency_name, work_location_borough [5]
   agency_name       work_location_borough title_description      Total_records
   <chr>             <chr>                 <chr>                          <int>
 1 POLICE DEPARTMENT MANHATTAN             *AGENCY ATTORNEY                   2
 2 POLICE DEPARTMENT MANHATTAN             *ASSISTANT ADVOCATE-PD             1
 3 POLICE DEPARTMENT MANHATTAN             *ATTORNEY AT LAW                   1
 4 POLICE DEPARTMENT MANHATTAN             *CUSTODIAL ASSISTANT               1
 5 POLICE DEPARTMENT BRONX                 ACCOUNTANT                         1
 6 POLICE DEPARTMENT BROOKLYN              ACCOUNTANT                         3
 7 POLICE DEPARTMENT MANHATTAN             ACCOUNTANT                         9
 8 POLICE DEPARTMENT QUEENS                ACCOUNTANT                         2
 9 POLICE DEPARTMENT RICHMOND              ACCOUNTANT                         2
10 POLICE DEPARTMENT BRONX                 ADM MANAGER-NON-MGRL               1
# ℹ 457 more rows
# ℹ 6 more variables: base_salary_sum <dbl>, base_salary_avg <dbl>,
#   base_salary_sum2 <dbl>, total_other_sum <dbl>, total_paid_sum <dbl>,
#   total_paid_avg <dbl>
…
  ) |>
  # arrange(title_description)
  arrange(desc(Total_records))

# A tibble: 327 × 8
   title_description               Total_records base_salary_sum base_salary_avg
   <chr>                                   <int>           <dbl>           <dbl>
 1 POLICE OFFICER                         226300    16243575854           71446.
 2 SCHOOL SAFETY AGENT                     45169     1952776948           41400.
 3 P.O. DA DET GR3                         31391     3082214165           99498.
 4 SERGEANT-                               26698     2831977743          108291.
 5 SCHOOL CROSSING GUARD                   20629       17793767.          15649.
 6 TRAFFIC ENFORCEMENT AGENT               19505      815475464           38654.
 7 LIEUTENANT                              13793     1722631027          123546.
 8 POLICE COMMUNICATIONS TECHNICI…         12786      615427901           41371.
 9 POLICE ADMINISTRATIVE AIDE              12381      508306876           38490.
10 SERGEANT                                12167     1180616023           97877.
# ℹ 317 more rows
# ℹ 4 more variables: base_salary_sum2 <dbl>, total_other_sum <dbl>,
#   total_paid_sum <dbl>, total_paid_avg <dbl>
…
Code

payroll_data_fire_police |>
  group_by(work_location_borough,fiscal_year) |>
  summarise(
    Total_records = n()
  )

`summarise()` has grouped output by 'work_location_borough'. You can override
using the `.groups` argument.

# A tibble: 50 × 3
# Groups:   work_location_borough [5]
   work_location_borough fiscal_year Total_records
   <chr>                       <int>         <int>
 1 BRONX                        2015          9663
 2 BRONX                        2016         10011
 3 BRONX                        2017         10320
 4 BRONX                        2018         10433
 5 BRONX                        2019         10398
 6 BRONX                        2020         10586
 7 BRONX                        2021         10495
 8 BRONX                        2022         10215
 9 BRONX                        2023          9907
10 BRONX                        2024          9887
# ℹ 40 more rows

Code

payroll_data_fire_police |>
  group_by(title_description) |>
  summarise(
    Total_records = n()
  ) |>
  arrange(desc(Total_records))

# A tibble: 436 × 2
   title_description                Total_records
   <chr>                                    <int>
 1 POLICE OFFICER                          263740
 2 FIREFIGHTER                              90904
 3 SCHOOL SAFETY AGENT                      54806
 4 P.O. DA DET GR3                          35911
 5 LIEUTENANT                               32742
 6 EMERGENCY MEDICAL SPECIALIST-EMT         31774
 7 SERGEANT-                                29848
 8 SCHOOL CROSSING GUARD                    27381
 9 TRAFFIC ENFORCEMENT AGENT                24466
10 POLICE COMMUNICATIONS TECHNICIAN         16748
# ℹ 426 more rows
…
